5 R Seurat: Guided Clustering Tutorial | Portfolio
…
## Calculating cluster 2

## Calculating cluster 3

## Calculating cluster 4

## Calculating cluster 5

## Calculating cluster 6

## Calculating cluster 7

## Calculating cluster 8

## # A tibble: 7,019 × 7
## # Groups:   cluster [9]
##        p_val avg_log2FC pct.1 pct.2 p_val_adj cluster gene     
##        <dbl>      <dbl> <dbl> <dbl>     <dbl> <fct>   <chr>    
##  1 3.75e-112       1.21 0.912 0.592 5.14e-108 0       LDHB     
##  2 9.57e- 88       2.40 0.447 0.108 1.31e- 83 0       CCR7     
##  3 1.15e- 76       1.06 0.845 0.406 1.58e- 72 0       CD3D     
##  4 1.12e- 54       1.04 0.731 0.4   1.54e- 50 0       CD3E     
##  5 1.35e- 51       2.14 0.342 0.103 1.86e- 47 0       LEF1     
##  6 1.94e- 47       1.20 0.629 0.359 2.66e- 43 0       NOSIP    
##  7 2.81e- 44       1.53 0.443 0.185 3.85e- 40 0       PIK3IP1  
##  8 6.27e- 43       1.99 0.33  0.112 8.60e- 39 0       PRKCQ-AS1
##  9 1.16e- 40       2.70 0.2   0.04  1.59e- 36 0       FHIT     
## 10 1.34e- 34       1.96 0.268 0.087 1.84e- 30 0       MAL      
## # ℹ 7,009 more rows
…
5.2.5 Finding differentially expressed features

# vind markers voor elk cluster in vergelijking met alle overige cellen, reporteer alleen de positieve
alzheimer.markers <- FindAllMarkers(alzheimer, only.pos = TRUE)
alzheimer.markers %>%
    group_by(cluster) %>%
    dplyr::filter(avg_log2FC > 1)

## # A tibble: 7,780 × 7
## # Groups:   cluster [7]
##       p_val avg_log2FC pct.1 pct.2 p_val_adj cluster gene           
##       <dbl>      <dbl> <dbl> <dbl>     <dbl> <fct>   <chr>          
##  1 3.33e-62       3.15 0.463 0.083  2.05e-57 0       ENSG00000249867
##  2 1.07e-53       2.57 0.593 0.215  6.55e-49 0       ENSG00000146090
##  3 2.26e-45       1.80 0.739 0.481  1.39e-40 0       ENSG00000067798
##  4 2.85e-45       1.29 0.893 0.79   1.75e-40 0       ENSG00000073849
##  5 1.64e-41       2.15 0.665 0.393  1.01e-36 0       ENSG00000101463
##  6 1.67e-37       3.40 0.27  0.041  1.02e-32 0       ENSG00000273409
##  7 7.50e-37       3.80 0.326 0.074  4.61e-32 0       ENSG00000198010
##  8 9.69e-36       1.45 0.757 0.473  5.96e-31 0       ENSG00000184005
##  9 3.25e-34       5.21 0.178 0.012  2.00e-29 0       ENSG00000182836
## 10 1.30e-30       1.05 0.84  0.717  7.99e-26 0       ENSG00000149177
## # ℹ 7,770 more rows
…
